{
	"device": "dizi",
	"name": {
		"zh": "Redmi Pad Pro / 哈利·波特版",
		"en": "Redmi Pad Pro / Special Edition featuring Harry Potter"
	},
	"type": "tablet",
	"miui": "no",
	"branches": [
		{
			"name": {
				"zh": "小米澎湃 OS 正式版",
				"en": "Xiaomi HyperOS Stable"
			},
			"branchCode": "dizi",
			"idtag": "CnOO",
			"branchtag": "F",
			"show": "1",
			"carrier": ["", "chinatelecom", "chinamobile", "chinaunicom"],
			"region": "cn",
			"zone": "1",
			"ep": "0",
			"roms": {
				"OS1.0.10.0.UNSCNXM": {
					"os": "OS1.0.10.0.UNSCNXM",
					"android": "14.0",
					"release": "2024-04-30",
					"recovery": "miui_DIZI_OS1.0.10.0.UNSCNXM_0655389e3b_14.0.zip",
					"fastboot": "dizi_images_OS1.0.10.0.UNSCNXM_20240425.0000.00_14.0_cn_85dc89676c.tgz"
				},
				"OS1.0.7.0.UNSCNXM": {
					"os": "OS1.0.7.0.UNSCNXM",
					"android": "14.0",
					"release": "2024-04-18",
					"recovery": "miui_DIZI_OS1.0.7.0.UNSCNXM_a04ca4e077_14.0.zip",
					"fastboot": "dizi_images_OS1.0.7.0.UNSCNXM_20240416.0000.00_14.0_cn_344f513ba8.tgz"
				},
				"OS1.0.6.0.UNSCNXM": {
					"os": "OS1.0.6.0.UNSCNXM",
					"android": "14.0",
					"release": "2024-04-16",
					"recovery": "miui_DIZI_OS1.0.6.0.UNSCNXM_1e97ea7064_14.0.zip",
					"fastboot": "dizi_images_OS1.0.6.0.UNSCNXM_20240414.0000.00_14.0_cn_238255ce31.tgz"
				},
				"OS1.0.5.0.UNSCNXM": {
					"os": "OS1.0.5.0.UNSCNXM",
					"android": "14.0",
					"release": "2024-04-14",
					"recovery": "miui_DIZI_OS1.0.5.0.UNSCNXM_1e1bd0872d_14.0.zip",
					"fastboot": "dizi_images_OS1.0.5.0.UNSCNXM_20240411.0000.00_14.0_cn_261f6e4462.tgz"
				},
				"OS1.0.3.0.UNSCNXM": {
					"os": "OS1.0.3.0.UNSCNXM",
					"android": "14.0",
					"release": "2024-04-10",
					"recovery": "miui_DIZI_OS1.0.3.0.UNSCNXM_14d3343280_14.0.zip",
					"fastboot": "dizi_images_OS1.0.3.0.UNSCNXM_20240406.0000.00_14.0_cn_6bee913e04.tgz"
				}
			}
		},
		{
			"name": {
				"zh": "小米澎湃 OS 演示机系统",
				"en": "Xiaomi HyperOS China MiStore Demo"
			},
			"branchCode": "dizi_demo",
			"idtag": "CnOD",
			"branchtag": "F",
			"show": "0",
			"region": "cn",
			"carrier": ["", "chinatelecom", "chinamobile", "chinaunicom"],
			"zone": "1",
			"ep": "0",
			"roms": {
				"OS1.0.5.0.UNSCNDM": {
					"os": "OS1.0.5.0.UNSCNDM",
					"android": "14.0",
					"release": "2024-04-19",
					"recovery": "miui_DIZIDEMO_OS1.0.5.0.UNSCNDM_8f4af52249_14.0.zip",
					"fastboot": "dizi_demo_images_OS1.0.5.0.UNSCNDM_20240418.0000.00_14.0_cn_b6d29d2b1d.tgz"
				},
				"OS1.0.4.0.UNSCNDM": {
					"os": "OS1.0.4.0.UNSCNDM",
					"android": "14.0",
					"release": "2024-04-10",
					"recovery": "miui_DIZIDEMO_OS1.0.4.0.UNSCNDM_12efe567ea_14.0.zip",
					"fastboot": "dizi_demo_images_OS1.0.4.0.UNSCNDM_20240405.0000.00_14.0_cn_c698536064.tgz",
					"ctelecom": ""
				}
			}
		}
	]
}
