{
	"device": "fire",
	"name": {
		"zh": "Redmi 12 国际",
		"en": "Redmi 12"
	},
	"type": "phone",
	"miui": "yes",
	"branches": [
		{
			"name": {
				"zh": "小米澎湃 OS 国际正式版",
				"en": "Xiaomi HyperOS Global Stable"
			},
			"branchCode": "fire_global",
			"idtag": "GBOO",
			"branchtag": "F",
			"show": "1",
			"carrier": [""],
			"region": "global",
			"zone": "2",
			"ep": "0",
			"roms": {
				"OS1.0.4.0.UMXMIXM": {
					"os": "OS1.0.4.0.UMXMIXM",
					"android": "14.0",
					"release": "2024-04-27",
					"recovery": "miui_FIREGlobal_OS1.0.4.0.UMXMIXM_d3b013b97b_14.0.zip",
					"fastboot": ""
				},
				"OS1.0.3.0.UMXMIXM": {
					"os": "OS1.0.3.0.UMXMIXM",
					"android": "14.0",
					"release": "2024-03-11",
					"recovery": "miui_FIREGlobal_OS1.0.3.0.UMXMIXM_b397436dfb_14.0.zip",
					"fastboot": "fire_global_images_OS1.0.3.0.UMXMIXM_20240227.0000.00_14.0_global_feb5870d68.tgz"
				},
				"OS1.0.1.0.UMXMIXM": {
					"os": "OS1.0.1.0.UMXMIXM",
					"android": "14.0",
					"release": "2024-01-13",
					"recovery": "miui_FIREGlobal_OS1.0.1.0.UMXMIXM_3984ea57a0_14.0.zip",
					"fastboot": "fire_global_images_OS1.0.1.0.UMXMIXM_20240102.0000.00_14.0_global_f32679f279.tgz"
				}
			}
		},
		{
			"name": {
				"zh": "小米澎湃 OS 欧洲EEA正式版",
				"en": "Xiaomi HyperOS Europe EEA Stable"
			},
			"branchCode": "fire_eea_global",
			"idtag": "EEAO",
			"branchtag": "F",
			"show": "1",
			"carrier": [""],
			"region": "eea",
			"zone": "2",
			"ep": "0",
			"roms": {
				"OS1.0.6.0.UMXEUXM": {
					"os": "OS1.0.6.0.UMXEUXM",
					"android": "14.0",
					"release": "2024-04-27",
					"recovery": "miui_FIREEEAGlobal_OS1.0.6.0.UMXEUXM_e2e66844e4_14.0.zip",
					"fastboot": ""
				},
				"OS1.0.5.0.UMXEUXM": {
					"os": "OS1.0.5.0.UMXEUXM",
					"android": "14.0",
					"release": "2024-03-18",
					"recovery": "miui_FIREEEAGlobal_OS1.0.5.0.UMXEUXM_7fcc073eb0_14.0.zip",
					"fastboot": "fire_eea_global_images_OS1.0.5.0.UMXEUXM_20240226.0000.00_14.0_eea_540d4c0213.tgz"
				},
				"OS1.0.2.0.UMXEUXM": {
					"os": "OS1.0.2.0.UMXEUXM",
					"android": "14.0",
					"release": "2024-02-03",
					"recovery": "miui_FIREEEAGlobal_OS1.0.2.0.UMXEUXM_a32447ba31_14.0.zip",
					"fastboot": "fire_eea_global_images_OS1.0.2.0.UMXEUXM_20240124.0000.00_14.0_eea_0194b287d9.tgz"
				}
			}
		},
		{
			"name": {
				"zh": "小米澎湃 OS 俄罗斯正式版",
				"en": "Xiaomi HyperOS Russia Stable"
			},
			"branchCode": "fire_ru_global",
			"idtag": "RUSO",
			"branchtag": "F",
			"show": "1",
			"carrier": [""],
			"region": "ru",
			"zone": "2",
			"ep": "0",
			"roms": {
				"OS1.0.3.0.UMXRUXM": {
					"os": "OS1.0.3.0.UMXRUXM",
					"android": "14.0",
					"release": "2024-04-01",
					"recovery": "miui_FIRERUGlobal_OS1.0.3.0.UMXRUXM_ff349cd9f7_14.0.zip",
					"fastboot": "fire_ru_global_images_OS1.0.3.0.UMXRUXM_20240311.0000.00_14.0_ru_b4cd9cf8db.tgz"
				},
				"OS1.0.2.0.UMXRUXM": {
					"os": "OS1.0.2.0.UMXRUXM",
					"android": "14.0",
					"release": "2024-02-18",
					"recovery": "miui_FIRERUGlobal_OS1.0.2.0.UMXRUXM_9ff894d5eb_14.0.zip",
					"fastboot": "fire_ru_global_images_OS1.0.2.0.UMXRUXM_20240201.0000.00_14.0_ru_db2ba2540d.tgz"
				}
			}
		},
		{
			"name": {
				"zh": "小米澎湃 OS 印度正式版",
				"en": "Xiaomi HyperOS India Stable"
			},
			"branchCode": "fire_in_global",
			"idtag": "INSO",
			"branchtag": "F",
			"show": "1",
			"carrier": [""],
			"region": "in",
			"zone": "2",
			"ep": "0",
			"roms": {
				"OS1.0.1.0.UMXINXM": {
					"os": "OS1.0.1.0.UMXINXM",
					"android": "14.0",
					"release": "2024-03-21",
					"recovery": "miui_FIREINGlobal_OS1.0.1.0.UMXINXM_944394f9fa_14.0.zip",
					"fastboot": "fire_in_global_images_OS1.0.1.0.UMXINXM_20240305.0000.00_14.0_in_3bb16c9bbc.tgz"
				}
			}
		},
		{
			"name": {
				"zh": "小米澎湃 OS 印度尼西亚正式版",
				"en": "Xiaomi HyperOS Indonesia Stable"
			},
			"branchCode": "fire_id_global",
			"idtag": "IDSO",
			"branchtag": "F",
			"show": "1",
			"carrier": [""],
			"region": "id",
			"zone": "2",
			"ep": "0",
			"roms": {
				"OS1.0.5.0.UMXIDXM": {
					"os": "OS1.0.5.0.UMXIDXM",
					"android": "14.0",
					"release": "2024-04-12",
					"recovery": "miui_FIREIDGlobal_OS1.0.5.0.UMXIDXM_97393efd3d_14.0.zip",
					"fastboot": "fire_id_global_images_OS1.0.5.0.UMXIDXM_20240328.0000.00_14.0_id_bde3c9fb3e.tgz"
				},
				"OS1.0.3.0.UMXIDXM": {
					"os": "OS1.0.3.0.UMXIDXM",
					"android": "14.0",
					"release": "2024-02-18",
					"recovery": "miui_FIREIDGlobal_OS1.0.3.0.UMXIDXM_fbe712cb0e_14.0.zip",
					"fastboot": "fire_id_global_images_OS1.0.3.0.UMXIDXM_20240202.0000.00_14.0_id_82827a467e.tgz"
				}
			}
		},
		{
			"name": {
				"zh": "小米澎湃 OS 土耳其正式版",
				"en": "Xiaomi HyperOS Turkey Stable"
			},
			"branchCode": "fire_tr_global",
			"idtag": "TRSO",
			"branchtag": "F",
			"show": "1",
			"carrier": [""],
			"region": "tr",
			"zone": "2",
			"ep": "0",
			"roms": {
				"OS1.0.2.0.UMXTRXM": {
					"os": "OS1.0.2.0.UMXTRXM",
					"android": "14.0",
					"release": "2024-03-18",
					"recovery": "miui_FIRETRGlobal_OS1.0.2.0.UMXTRXM_7dc7caab3c_14.0.zip",
					"fastboot": "fire_tr_global_images_OS1.0.2.0.UMXTRXM_20240311.0000.00_14.0_tr_c0203f0974.tgz"
				},
				"OS1.0.1.0.UMXTRXM": {
					"os": "OS1.0.1.0.UMXTRXM",
					"android": "14.0",
					"release": "2024-02-25",
					"recovery": "miui_FIRETRGlobal_OS1.0.1.0.UMXTRXM_524e059d46_14.0.zip",
					"fastboot": "fire_tr_global_images_OS1.0.1.0.UMXTRXM_20240207.0000.00_14.0_tr_dce2dcf5b3.tgz"
				}
			}
		}
	]
}
