{
	"device": "light",
	"name": {
		"zh": "Redmi 10 5G/Redmi 11 Prime 5G/Redmi Note 11E/POCO M4 5G",
		"en": "Redmi 10 5G/Redmi 11 Prime 5G/Redmi Note 11E/POCO M4 5G"
	},
	"type": "phone",
	"miui": "yes",
	"branches": [
		{
			"name": {
				"zh": "小米澎湃 OS 正式版",
				"en": "Xiaomi HyperOS Stable"
			},
			"branchCode": "light",
			"idtag": "CnOO",
			"branchtag": "F",
			"show": "1",
			"carrier": [""],
			"region": "cn",
			"zone": "1",
			"ep": "0",
			"roms": {
				"OS1.0.7.0.ULSCNXM": {
					"os": "OS1.0.7.0.ULSCNXM",
					"android": "14.0",
					"release": "2024-03-21",
					"recovery": "miui_LIGHT_OS1.0.7.0.ULSCNXM_3517584d40_14.0.zip",
					"fastboot": "light_images_OS1.0.7.0.ULSCNXM_20240304.0000.00_14.0_cn_984caeecd7.tgz"
				},
				"OS1.0.5.0.ULSCNXM": {
					"os": "OS1.0.5.0.ULSCNXM",
					"android": "14.0",
					"release": "2024-01-04",
					"recovery": "miui_LIGHT_OS1.0.5.0.ULSCNXM_d259f29a72_14.0.zip",
					"fastboot": "light_images_OS1.0.5.0.ULSCNXM_20231226.0000.00_14.0_cn_65e1f09417.tgz"
				}
			}
		},
		{
			"name": {
				"zh": "小米澎湃 OS 中国电信定制版",
				"en": "Xiaomi HyperOS China Telecom Carrier Edition"
			},
			"branchCode": "light",
			"idtag": "CnOT",
			"branchtag": "F",
			"show": "1",
			"region": "cn",
			"carrier": ["chinatelecom"],
			"zone": "1",
			"ep": "0",
			"roms": {
				"OS1.0.7.0.ULSCNXM": {
					"os": "OS1.0.7.0.ULSCNXM",
					"android": "14.0",
					"release": "2024-03-21",
					"recovery": "miui_LIGHT_OS1.0.7.0.ULSCNXM_3517584d40_14.0.zip",
					"fastboot": "light_images_OS1.0.7.0.ULSCNXM_20240304.0000.00_14.0_cn_chinatelecom_aa83e1237a.tgz"
				},
				"OS1.0.5.0.ULSCNXM": {
					"os": "OS1.0.5.0.ULSCNXM",
					"android": "14.0",
					"release": "2024-01-04",
					"recovery": "miui_LIGHT_OS1.0.5.0.ULSCNXM_d259f29a72_14.0.zip",
					"fastboot": "light_images_OS1.0.5.0.ULSCNXM_20231226.0000.00_14.0_cn_chinatelecom_16f69004e8.tgz"
				}
			}
		},
		{
			"name": {
				"zh": "小米澎湃 OS 中国移动定制版",
				"en": "Xiaomi HyperOS China Mobile Carrier Edition"
			},
			"branchCode": "light",
			"idtag": "CnOM",
			"branchtag": "F",
			"show": "1",
			"region": "cn",
			"carrier": ["chinamobile"],
			"zone": "1",
			"ep": "0",
			"roms": {
				"OS1.0.7.0.ULSCNXM": {
					"os": "OS1.0.7.0.ULSCNXM",
					"android": "14.0",
					"release": "2024-03-21",
					"recovery": "miui_LIGHT_OS1.0.7.0.ULSCNXM_3517584d40_14.0.zip",
					"fastboot": "light_images_OS1.0.7.0.ULSCNXM_20240304.0000.00_14.0_cn_chinamobile_58a36815e7.tgz"
				},
				"OS1.0.5.0.ULSCNXM": {
					"os": "OS1.0.5.0.ULSCNXM",
					"android": "14.0",
					"release": "2024-01-04",
					"recovery": "miui_LIGHT_OS1.0.5.0.ULSCNXM_d259f29a72_14.0.zip",
					"fastboot": "light_images_OS1.0.5.0.ULSCNXM_20231226.0000.00_14.0_cn_chinamobile_b18e186c58.tgz"
				}
			}
		},
		{
			"name": {
				"zh": "小米澎湃 OS 中国联通定制版",
				"en": "Xiaomi HyperOS China Unicom Carrier Edition"
			},
			"branchCode": "light",
			"idtag": "CnOU",
			"branchtag": "F",
			"show": "1",
			"region": "cn",
			"carrier": ["chinaunicom"],
			"zone": "1",
			"ep": "0",
			"roms": {
				"OS1.0.7.0.ULSCNXM": {
					"os": "OS1.0.7.0.ULSCNXM",
					"android": "14.0",
					"release": "2024-03-21",
					"recovery": "miui_LIGHT_OS1.0.7.0.ULSCNXM_3517584d40_14.0.zip",
					"fastboot": "light_images_OS1.0.7.0.ULSCNXM_20240304.0000.00_14.0_cn_chinaunicom_ea28351088.tgz"
				},
				"OS1.0.5.0.ULSCNXM": {
					"os": "OS1.0.5.0.ULSCNXM",
					"android": "14.0",
					"release": "2024-01-04",
					"recovery": "miui_LIGHT_OS1.0.5.0.ULSCNXM_d259f29a72_14.0.zip",
					"fastboot": "light_images_OS1.0.5.0.ULSCNXM_20231226.0000.00_14.0_cn_chinaunicom_578ff307bd.tgz"
				}
			}
		},
		{
			"name": {
				"zh": "小米澎湃 OS 中国台湾地区正式版",
				"en": "Xiaomi HyperOS China Taiwan Stable"
			},
			"branchCode": "light_tw_global",
			"idtag": "CNTP",
			"branchtag": "F",
			"show": "1",
			"carrier": [""],
			"region": "tw",
			"zone": "2",
			"ep": "0",
			"roms": {
				"OS1.0.1.0.ULSTWXM": {
					"os": "OS1.0.1.0.ULSTWXM",
					"android": "14.0",
					"release": "2024-03-02",
					"recovery": "miui_LIGHTTWGlobal_OS1.0.1.0.ULSTWXM_095cff446e_14.0.zip",
					"fastboot": "light_tw_global_images_OS1.0.1.0.ULSTWXM_20240220.0000.00_14.0_tw_21687814df.tgz"
				}
			}
		},
		{
			"name": {
				"zh": "小米澎湃 OS 国际正式版",
				"en": "Xiaomi HyperOS Global Stable"
			},
			"branchCode": "light_global",
			"idtag": "GBOO",
			"branchtag": "F",
			"show": "1",
			"carrier": [""],
			"region": "global",
			"zone": "2",
			"ep": "0",
			"roms": {
				"OS1.0.4.0.ULSMIXM": {
					"os": "OS1.0.4.0.ULSMIXM",
					"android": "14.0",
					"release": "2024-04-18",
					"recovery": "miui_LIGHTGlobal_OS1.0.4.0.ULSMIXM_30f01c23fd_14.0.zip",
					"fastboot": "light_global_images_OS1.0.4.0.ULSMIXM_20240325.0000.00_14.0_global_3d3292fb9c.tgz"
				},
				"OS1.0.2.0.ULSMIXM": {
					"os": "OS1.0.2.0.ULSMIXM",
					"android": "14.0",
					"release": "2024-02-02",
					"recovery": "miui_LIGHTGlobal_OS1.0.2.0.ULSMIXM_b89aee5aea_14.0.zip",
					"fastboot": "light_global_images_OS1.0.2.0.ULSMIXM_20240119.0000.00_14.0_global_2d58be5545.tgz"
				}
			}
		},
		{
			"name": {
				"zh": "小米澎湃 OS 欧洲EEA正式版",
				"en": "Xiaomi HyperOS Europe EEA Stable"
			},
			"branchCode": "light_eea_global",
			"idtag": "EEAO",
			"branchtag": "F",
			"show": "1",
			"carrier": [""],
			"region": "eea",
			"zone": "2",
			"ep": "0",
			"roms": {
				"OS1.0.3.0.ULSEUXM": {
					"os": "OS1.0.3.0.ULSEUXM",
					"android": "14.0",
					"release": "2024-04-18",
					"recovery": "miui_LIGHTEEAGlobal_OS1.0.3.0.ULSEUXM_5a2625de37_14.0.zip",
					"fastboot": "light_eea_global_images_OS1.0.3.0.ULSEUXM_20240322.0000.00_14.0_eea_afa909dfbb.tgz"
				},
				"OS1.0.2.0.ULSEUXM": {
					"os": "OS1.0.2.0.ULSEUXM",
					"android": "14.0",
					"release": "2024-02-26",
					"recovery": "miui_LIGHTEEAGlobal_OS1.0.2.0.ULSEUXM_d416f577f6_14.0.zip",
					"fastboot": "light_eea_global_images_OS1.0.2.0.ULSEUXM_20240205.0000.00_14.0_eea_70913df06d.tgz"
				}
			}
		},
		{
			"name": {
				"zh": "小米澎湃 OS 欧洲TIM运营商定制版",
				"en": "Xiaomi HyperOS Europe TIM Carrier Edition"
			},
			"branchCode": "light_eea_ti_global",
			"idtag": "EUTI",
			"branchtag": "F",
			"show": "1",
			"carrier": [""],
			"region": "eea",
			"zone": "2",
			"ep": "0",
			"roms": {
				"OS1.0.1.0.ULSEUTI": {
					"os": "OS1.0.1.0.ULSEUTI",
					"android": "14.0",
					"release": "2024-03-20",
					"recovery": "miui_LIGHTEEATIGlobal_OS1.0.1.0.ULSEUTI_d675f8aab0_14.0.zip",
					"fastboot": ""
				}
			}
		},
		{
			"name": {
				"zh": "小米澎湃 OS 欧洲Orange运营商定制版",
				"en": "Xiaomi HyperOS Europe Orange Carrier Edition"
			},
			"branchCode": "light_eea_or_global",
			"idtag": "EUOR",
			"branchtag": "F",
			"show": "1",
			"carrier": [""],
			"region": "eea",
			"zone": "2",
			"ep": "0",
			"roms": {
				"OS1.0.1.0.ULSEUOR": {
					"os": "OS1.0.1.0.ULSEUOR",
					"android": "14.0",
					"release": "2024-04-02",
					"recovery": "miui_LIGHTEEAORGlobal_OS1.0.1.0.ULSEUOR_6384d7f9ac_14.0.zip",
					"fastboot": ""
				}
			}
		},
		{
			"name": {
				"zh": "小米澎湃 OS 欧洲Telefonica运营商定制版",
				"en": "Xiaomi HyperOS Europe Telefonica Carrier Edition"
			},
			"branchCode": "light_eea_tf_global",
			"idtag": "EUTF",
			"branchtag": "F",
			"show": "1",
			"carrier": [""],
			"region": "eea",
			"zone": "2",
			"ep": "0",
			"roms": {
				"OS1.0.2.0.ULSEUTF": {
					"os": "OS1.0.2.0.ULSEUTF",
					"android": "14.0",
					"release": "2024-05-06",
					"recovery": "miui_LIGHTEEATFGlobal_OS1.0.2.0.ULSEUTF_d72847ef3a_14.0.zip",
					"fastboot": ""
				},
				"OS1.0.1.0.ULSEUTF": {
					"os": "OS1.0.1.0.ULSEUTF",
					"android": "14.0",
					"release": "2024-03-25",
					"recovery": "miui_LIGHTEEATFGlobal_OS1.0.1.0.ULSEUTF_ddf22b21f5_14.0.zip",
					"fastboot": ""
				}
			}
		},
		{
			"name": {
				"zh": "小米澎湃 OS 欧洲Telefonica运营商定制版",
				"en": "Xiaomi HyperOS Europe Telefonica Carrier Edition"
			},
			"branchCode": "light_eea_vf_global",
			"idtag": "EUTF",
			"branchtag": "F",
			"show": "1",
			"carrier": [""],
			"region": "eea",
			"zone": "2",
			"ep": "0",
			"roms": {
				"OS1.0.4.0.ULSEUVF": {
					"os": "OS1.0.4.0.ULSEUVF",
					"android": "14.0",
					"release": "2024-03-26",
					"recovery": "miui_LIGHTEEAVFGlobal_OS1.0.4.0.ULSEUVF_c56230e911_14.0.zip",
					"fastboot": ""
				}
			}
		},
		{
			"name": {
				"zh": "小米澎湃 OS 俄罗斯正式版",
				"en": "Xiaomi HyperOS Russia Stable"
			},
			"branchCode": "light_ru_global",
			"idtag": "RUSO",
			"branchtag": "F",
			"show": "1",
			"carrier": [""],
			"region": "ru",
			"zone": "2",
			"ep": "0",
			"roms": {
				"OS1.0.1.0.ULSRUXM": {
					"os": "OS1.0.1.0.ULSRUXM",
					"android": "14.0",
					"release": "2024-04-01",
					"recovery": "miui_LIGHTRUGlobal_OS1.0.1.0.ULSRUXM_aea11c3fda_14.0.zip",
					"fastboot": "light_ru_global_images_OS1.0.1.0.ULSRUXM_20240229.0000.00_14.0_ru_1d0f49a79a.tgz"
				}
			}
		},
		{
			"name": {
				"zh": "小米澎湃 OS 印度正式版",
				"en": "Xiaomi HyperOS India Stable"
			},
			"branchCode": "light_in_global",
			"idtag": "INSO",
			"branchtag": "F",
			"show": "1",
			"carrier": [""],
			"region": "in",
			"zone": "2",
			"ep": "0",
			"roms": {
				"OS1.0.3.0.ULSINXM": {
					"os": "OS1.0.3.0.ULSINXM",
					"android": "14.0",
					"release": "2024-04-25",
					"recovery": "miui_LIGHTINGlobal_OS1.0.3.0.ULSINXM_9e4a3c7a82_14.0.zip",
					"fastboot": "light_in_global_images_OS1.0.3.0.ULSINXM_20240418.0000.00_14.0_in_f929625349.tgz"
				},
				"OS1.0.1.0.ULSINXM": {
					"os": "OS1.0.1.0.ULSINXM",
					"android": "14.0",
					"release": "2024-02-28",
					"recovery": "miui_LIGHTINGlobal_OS1.0.1.0.ULSINXM_f802900128_14.0.zip",
					"fastboot": "light_in_global_images_OS1.0.1.0.ULSINXM_20240131.0000.00_14.0_in_bf05af45a1.tgz"
				}
			}
		},
		{
			"name": {
				"zh": "小米澎湃 OS 印度尼西亚正式版",
				"en": "Xiaomi HyperOS Indonesia Stable"
			},
			"branchCode": "light_id_global",
			"idtag": "IDSO",
			"branchtag": "F",
			"show": "1",
			"carrier": [""],
			"region": "id",
			"zone": "2",
			"ep": "0",
			"roms": {
				"OS1.0.1.0.ULSIDXM": {
					"os": "OS1.0.1.0.ULSIDXM",
					"android": "14.0",
					"release": "2024-03-04",
					"recovery": "miui_LIGHTIDGlobal_OS1.0.1.0.ULSIDXM_57232ccd1d_14.0.zip",
					"fastboot": "light_id_global_images_OS1.0.1.0.ULSIDXM_20240220.0000.00_14.0_id_32f2767c3a.tgz"
				}
			}
		},
		{
			"name": {
				"zh": "小米澎湃 OS 土耳其正式版",
				"en": "Xiaomi HyperOS Turkey Stable"
			},
			"branchCode": "light_tr_global",
			"idtag": "TRSO",
			"branchtag": "F",
			"show": "1",
			"carrier": [""],
			"region": "tr",
			"zone": "2",
			"ep": "0",
			"roms": {
				"OS1.0.1.0.ULSTRXM": {
					"os": "OS1.0.1.0.ULSTRXM",
					"android": "14.0",
					"release": "2024-04-01",
					"recovery": "miui_LIGHTTRGlobal_OS1.0.1.0.ULSTRXM_9e9ec40fed_14.0.zip",
					"fastboot": "light_tr_global_images_OS1.0.1.0.ULSTRXM_20240229.0000.00_14.0_tr_a237857613.tgz"
				}
			}
		}
	]
}
