{
	"device": "moonstone",
	"name": {
		"zh": "POCO X5 5G",
		"en": "POCO X5 5G"
	},
	"type": "phone",
	"miui": "yes",
	"branches": [
		{
			"name": {
				"zh": "小米澎湃 OS 中国台湾地区正式版",
				"en": "Xiaomi HyperOS China Taiwan Stable"
			},
			"branchCode": "moonstone_tw_global",
			"idtag": "CNTP",
			"branchtag": "F",
			"show": "1",
			"carrier": [""],
			"region": "tw",
			"zone": "2",
			"ep": "0",
			"roms": {
				"OS1.0.1.0.UMPTWXM": {
					"os": "OS1.0.1.0.UMPTWXM",
					"android": "14.0",
					"release": "2024-03-05",
					"recovery": "miui_MOONSTONETWGlobal_OS1.0.1.0.UMPTWXM_bf9ab62ddb_14.0.zip",
					"fastboot": "moonstone_tw_global_images_OS1.0.1.0.UMPTWXM_20240220.0000.00_14.0_tw_d3ec6bc4ff.tgz"
				}
			}
		},
		{
			"name": {
				"zh": "小米澎湃 OS 国际正式版",
				"en": "Xiaomi HyperOS Global Stable"
			},
			"branchCode": "moonstone_global",
			"idtag": "GBOO",
			"branchtag": "F",
			"show": "1",
			"carrier": [""],
			"region": "global",
			"zone": "2",
			"ep": "0",
			"roms": {
				"OS1.0.5.0.UMPMIXM": {
					"os": "OS1.0.5.0.UMPMIXM",
					"android": "14.0",
					"release": "2024-04-19",
					"recovery": "miui_MOONSTONEGlobal_OS1.0.5.0.UMPMIXM_39a4f11957_14.0.zip",
					"fastboot": "moonstone_global_images_OS1.0.5.0.UMPMIXM_20240409.0000.00_14.0_global_abdcca4aed.tgz"
				},
				"OS1.0.3.0.UMPMIXM": {
					"os": "OS1.0.3.0.UMPMIXM",
					"android": "14.0",
					"release": "2024-01-23",
					"recovery": "miui_MOONSTONEGlobal_OS1.0.3.0.UMPMIXM_9531a81bb0_14.0.zip",
					"fastboot": "moonstone_global_images_OS1.0.3.0.UMPMIXM_20240112.0000.00_14.0_global_7422234d18.tgz"
				}
			}
		},
		{
			"name": {
				"zh": "小米澎湃 OS 欧洲EEA正式版",
				"en": "Xiaomi HyperOS Europe EEA Stable"
			},
			"branchCode": "moonstone_eea_global",
			"idtag": "EEAO",
			"branchtag": "F",
			"show": "1",
			"carrier": [""],
			"region": "eea",
			"zone": "2",
			"ep": "0",
			"roms": {
				"OS1.0.3.0.UMPEUXM": {
					"os": "OS1.0.3.0.UMPEUXM",
					"android": "14.0",
					"release": "2024-04-21",
					"recovery": "miui_MOONSTONEEEAGlobal_OS1.0.3.0.UMPEUXM_676208b136_14.0.zip",
					"fastboot": "moonstone_eea_global_images_OS1.0.3.0.UMPEUXM_20240409.0000.00_14.0_eea_ca27186d82.tgz"
				},
				"OS1.0.1.0.UMPEUXM": {
					"os": "OS1.0.1.0.UMPEUXM",
					"android": "14.0",
					"release": "2024-02-18",
					"recovery": "miui_MOONSTONEEEAGlobal_OS1.0.1.0.UMPEUXM_817ae3aaf2_14.0.zip",
					"fastboot": "moonstone_eea_global_images_OS1.0.1.0.UMPEUXM_20240121.0000.00_14.0_eea_94fdbaddcc.tgz"
				}
			}
		},
		{
			"name": {
				"zh": "小米澎湃 OS 俄罗斯正式版",
				"en": "Xiaomi HyperOS Russia Stable"
			},
			"branchCode": "moonstone_ru_global",
			"idtag": "RUSO",
			"branchtag": "F",
			"show": "1",
			"carrier": [""],
			"region": "ru",
			"zone": "2",
			"ep": "0",
			"roms": {
				"OS1.0.1.0.UMPRUXM": {
					"os": "OS1.0.1.0.UMPRUXM",
					"android": "14.0",
					"release": "2024-02-22",
					"recovery": "miui_MOONSTONERUGlobal_OS1.0.1.0.UMPRUXM_2891de9120_14.0.zip",
					"fastboot": "moonstone_ru_global_images_OS1.0.1.0.UMPRUXM_20240201.0000.00_14.0_ru_3d70fa269d.tgz"
				}
			}
		},
		{
			"name": {
				"zh": "小米澎湃 OS 印度正式版",
				"en": "Xiaomi HyperOS India Stable"
			},
			"branchCode": "moonstone_in_global",
			"idtag": "INSO",
			"branchtag": "F",
			"show": "1",
			"carrier": [""],
			"region": "in",
			"zone": "2",
			"ep": "0",
			"roms": {
				"OS1.0.2.0.UMPINXM": {
					"os": "OS1.0.2.0.UMPINXM",
					"android": "14.0",
					"release": "2024-04-20",
					"recovery": "miui_MOONSTONEINGlobal_OS1.0.2.0.UMPINXM_3bff7cbe6c_14.0.zip",
					"fastboot": "moonstone_in_global_images_OS1.0.2.0.UMPINXM_20240411.0000.00_14.0_in_cf5439f11b.tgz"
				},
				"OS1.0.1.0.UMPINXM": {
					"os": "OS1.0.1.0.UMPINXM",
					"android": "14.0",
					"release": "2024-01-31",
					"recovery": "miui_MOONSTONEINGlobal_OS1.0.1.0.UMPINXM_c5b06b9e3d_14.0.zip",
					"fastboot": "moonstone_in_global_images_OS1.0.1.0.UMPINXM_20240122.0000.00_14.0_in_7c9ecbefb5.tgz"
				}
			}
		},
		{
			"name": {
				"zh": "小米澎湃 OS 印度尼西亚正式版",
				"en": "Xiaomi HyperOS Indonesia Stable"
			},
			"branchCode": "moonstone_id_global",
			"idtag": "IDSO",
			"branchtag": "F",
			"show": "1",
			"carrier": [""],
			"region": "id",
			"zone": "2",
			"ep": "0",
			"roms": {
				"OS1.0.1.0.UMPIDXM": {
					"os": "OS1.0.1.0.UMPIDXM",
					"android": "14.0",
					"release": "2024-03-25",
					"recovery": "miui_MOONSTONEIDGlobal_OS1.0.1.0.UMPIDXM_7733dc62d6_14.0.zip",
					"fastboot": "moonstone_id_global_images_OS1.0.1.0.UMPIDXM_20240221.0000.00_14.0_id_106cd8e176.tgz"
				}
			}
		},
		{
			"name": {
				"zh": "小米澎湃 OS 土耳其正式版",
				"en": "Xiaomi HyperOS Turkey Stable"
			},
			"branchCode": "moonstone_tr_global",
			"idtag": "TRSO",
			"branchtag": "F",
			"show": "1",
			"carrier": [""],
			"region": "tr",
			"zone": "2",
			"ep": "0",
			"roms": {
				"OS1.0.1.0.UMPTRXM": {
					"os": "OS1.0.1.0.UMPTRXM",
					"android": "14.0",
					"release": "2024-03-25",
					"recovery": "miui_MOONSTONETRGlobal_OS1.0.1.0.UMPTRXM_f07fcf52f7_14.0.zip",
					"fastboot": "moonstone_tr_global_images_OS1.0.1.0.UMPTRXM_20240228.0000.00_14.0_tr_681d349a93.tgz"
				}
			}
		}
	]
}
