{
	"device": "pipa",
	"name": {
		"zh": "小米平板 6",
		"en": "Xiaomi Pad 6"
	},
	"type": "tablet",
	"miui": "yes",
	"branches": [
		{
			"name": {
				"zh": "小米澎湃 OS 正式版",
				"en": "Xiaomi HyperOS Stable"
			},
			"branchCode": "pipa",
			"idtag": "CnOO",
			"branchtag": "F",
			"show": "1",
			"carrier": ["", "chinatelecom", "chinamobile", "chinaunicom"],
			"region": "cn",
			"zone": "1",
			"ep": "0",
			"roms": {
				"OS1.0.5.0.UMZCNXM": {
					"os": "OS1.0.5.0.UMZCNXM",
					"android": "14.0",
					"release": "2024-04-02",
					"recovery": "miui_PIPA_OS1.0.5.0.UMZCNXM_aa9825df2f_14.0.zip",
					"fastboot": "pipa_images_OS1.0.5.0.UMZCNXM_20240315.0000.00_14.0_cn_2b567d1820.tgz"
				},
				"OS1.0.4.0.UMZCNXM": {
					"os": "OS1.0.4.0.UMZCNXM",
					"android": "14.0",
					"release": "2024-01-27",
					"recovery": "miui_PIPA_OS1.0.4.0.UMZCNXM_45e70ba86c_14.0.zip",
					"fastboot": "pipa_images_OS1.0.4.0.UMZCNXM_20240123.0000.00_14.0_cn_5ac31ad581.tgz"
				},
				"OS1.0.2.0.UMZCNXM": {
					"os": "OS1.0.2.0.UMZCNXM",
					"android": "14.0",
					"release": "2023-12-21",
					"recovery": "miui_PIPA_OS1.0.2.0.UMZCNXM_55ebca72a7_14.0.zip",
					"fastboot": "pipa_images_OS1.0.2.0.UMZCNXM_20231214.0000.00_14.0_cn_c56da969e9.tgz"
				}
			}
		},
		{
			"name": {
				"zh": "小米澎湃 OS 演示机系统",
				"en": "Xiaomi HyperOS China MiStore Demo"
			},
			"branchCode": "pipa_demo",
			"idtag": "CnOD",
			"branchtag": "F",
			"show": "0",
			"region": "cn",
			"carrier": ["", "chinatelecom", "chinamobile", "chinaunicom"],
			"zone": "1",
			"ep": "0",
			"roms": {
				"OS1.0.2.0.UMZCNDM": {
					"os": "OS1.0.2.0.UMZCNDM",
					"android": "14.0",
					"release": "2023-12-19",
					"recovery": "miui_PIPADEMO_OS1.0.2.0.UMZCNDM_a663b5c25d_14.0.zip",
					"fastboot": "pipa_demo_images_OS1.0.2.0.UMZCNDM_20231219.0000.00_14.0_cn_511733fd2d.tgz",
					"ctelecom": ""
				}
			}
		},
		{
			"name": {
				"zh": "小米澎湃 OS 中国台湾地区正式版",
				"en": "Xiaomi HyperOS China Taiwan Stable"
			},
			"branchCode": "pipa_tw_global",
			"idtag": "CNTP",
			"branchtag": "F",
			"show": "1",
			"carrier": [""],
			"region": "tw",
			"zone": "2",
			"ep": "0",
			"roms": {
				"OS1.0.3.0.UMZTWXM": {
					"os": "OS1.0.3.0.UMZTWXM",
					"android": "14.0",
					"release": "2024-04-03",
					"recovery": "miui_PIPATWGlobal_OS1.0.3.0.UMZTWXM_dc7f1bb2b3_14.0.zip",
					"fastboot": "pipa_tw_global_images_OS1.0.3.0.UMZTWXM_20240314.0000.00_14.0_tw_3259f84b4f.tgz"
				},
				"OS1.0.2.0.UMZTWXM": {
					"os": "OS1.0.2.0.UMZTWXM",
					"android": "14.0",
					"release": "2024-01-30",
					"recovery": "miui_PIPATWGlobal_OS1.0.2.0.UMZTWXM_4ce44aad33_14.0.zip",
					"fastboot": "pipa_tw_global_images_OS1.0.2.0.UMZTWXM_20240112.0000.00_14.0_tw_d326e331a7.tgz"
				}
			}
		},
		{
			"name": {
				"zh": "小米澎湃 OS 国际正式版",
				"en": "Xiaomi HyperOS Global Stable"
			},
			"branchCode": "pipa_global",
			"idtag": "GBOO",
			"branchtag": "F",
			"show": "1",
			"carrier": [""],
			"region": "global",
			"zone": "2",
			"ep": "0",
			"roms": {
				"OS1.0.6.0.UMZMIXM": {
					"os": "OS1.0.6.0.UMZMIXM",
					"android": "14.0",
					"release": "2024-03-22",
					"recovery": "miui_PIPAGlobal_OS1.0.6.0.UMZMIXM_cb615bac0c_14.0.zip",
					"fastboot": "pipa_global_images_OS1.0.6.0.UMZMIXM_20240306.0000.00_14.0_global_1c9afc4106.tgz"
				},
				"OS1.0.4.0.UMZMIXM": {
					"os": "OS1.0.4.0.UMZMIXM",
					"android": "14.0",
					"release": "2024-01-22",
					"recovery": "miui_PIPAGlobal_OS1.0.4.0.UMZMIXM_55c8110a52_14.0.zip",
					"fastboot": "pipa_global_images_OS1.0.4.0.UMZMIXM_20240109.0000.00_14.0_global_fbbfc5cb41.tgz"
				}
			}
		},
		{
			"name": {
				"zh": "小米澎湃 OS 欧洲EEA正式版",
				"en": "Xiaomi HyperOS Europe EEA Stable"
			},
			"branchCode": "pipa_eea_global",
			"idtag": "EEAO",
			"branchtag": "F",
			"show": "1",
			"carrier": [""],
			"region": "eea",
			"zone": "2",
			"ep": "0",
			"roms": {
				"OS1.0.5.0.UMZEUXM": {
					"os": "OS1.0.5.0.UMZEUXM",
					"android": "14.0",
					"release": "2024-04-16",
					"recovery": "miui_PIPAEEAGlobal_OS1.0.5.0.UMZEUXM_175e04075b_14.0.zip",
					"fastboot": "pipa_eea_global_images_OS1.0.5.0.UMZEUXM_20240320.0000.00_14.0_eea_a8efc7c827.tgz"
				},
				"OS1.0.4.0.UMZEUXM": {
					"os": "OS1.0.4.0.UMZEUXM",
					"android": "14.0",
					"release": "2024-02-18",
					"recovery": "miui_PIPAEEAGlobal_OS1.0.4.0.UMZEUXM_81e4f605a8_14.0.zip",
					"fastboot": "pipa_eea_global_images_OS1.0.4.0.UMZEUXM_20240131.0000.00_14.0_eea_6ae9c39542.tgz"
				},
				"OS1.0.3.0.UMZEUXM": {
					"os": "OS1.0.3.0.UMZEUXM",
					"android": "14.0",
					"release": "2024-01-17",
					"recovery": "miui_PIPAEEAGlobal_OS1.0.3.0.UMZEUXM_a9b435c82f_14.0.zip",
					"fastboot": "pipa_eea_global_images_OS1.0.3.0.UMZEUXM_20240109.0000.00_14.0_eea_5aa65e0eb0.tgz"
				}
			}
		},
		{
			"name": {
				"zh": "小米澎湃 OS 俄罗斯正式版",
				"en": "Xiaomi HyperOS Russia Stable"
			},
			"branchCode": "pipa_ru_global",
			"idtag": "RUSO",
			"branchtag": "F",
			"show": "1",
			"carrier": [""],
			"region": "ru",
			"zone": "2",
			"ep": "0",
			"roms": {
				"OS1.0.4.0.UMZRUXM": {
					"os": "OS1.0.4.0.UMZRUXM",
					"android": "14.0",
					"release": "2024-04-22",
					"recovery": "miui_PIPARUGlobal_OS1.0.4.0.UMZRUXM_f73ca222e5_14.0.zip",
					"fastboot": "pipa_ru_global_images_OS1.0.4.0.UMZRUXM_20240320.0000.00_14.0_ru_3f402b9cd3.tgz"
				},
				"OS1.0.3.0.UMZRUXM": {
					"os": "OS1.0.3.0.UMZRUXM",
					"android": "14.0",
					"release": "2024-02-27",
					"recovery": "miui_PIPARUGlobal_OS1.0.3.0.UMZRUXM_c48bd73009_14.0.zip",
					"fastboot": "pipa_ru_global_images_OS1.0.3.0.UMZRUXM_20240218.0000.00_14.0_ru_7a174a69d1.tgz"
				},
				"OS1.0.2.0.UMZRUXM": {
					"os": "OS1.0.2.0.UMZRUXM",
					"android": "14.0",
					"release": "2024-02-08",
					"recovery": "miui_PIPARUGlobal_OS1.0.2.0.UMZRUXM_b7727987f3_14.0.zip",
					"fastboot": "pipa_ru_global_images_OS1.0.2.0.UMZRUXM_20240112.0000.00_14.0_ru_0f6d6caae9.tgz"
				}
			}
		},
		{
			"name": {
				"zh": "小米澎湃 OS 印度正式版",
				"en": "Xiaomi HyperOS India Stable"
			},
			"branchCode": "pipa_in_global",
			"idtag": "INSO",
			"branchtag": "F",
			"show": "1",
			"carrier": [""],
			"region": "in",
			"zone": "2",
			"ep": "0",
			"roms": {
				"OS1.0.3.0.UMZINXM": {
					"os": "OS1.0.3.0.UMZINXM",
					"android": "14.0",
					"release": "2024-03-21",
					"recovery": "miui_PIPAINGlobal_OS1.0.3.0.UMZINXM_53efbe0084_14.0.zip",
					"fastboot": "pipa_in_global_images_OS1.0.3.0.UMZINXM_20240311.0000.00_14.0_in_ca0bbebb23.tgz"
				},
				"OS1.0.2.0.UMZINXM": {
					"os": "OS1.0.2.0.UMZINXM",
					"android": "14.0",
					"release": "2024-01-22",
					"recovery": "miui_PIPAINGlobal_OS1.0.2.0.UMZINXM_c1b291134f_14.0.zip",
					"fastboot": "pipa_in_global_images_OS1.0.2.0.UMZINXM_20240112.0000.00_14.0_in_be7eecefa4.tgz"
				}
			}
		},
		{
			"name": {
				"zh": "小米澎湃 OS 印度尼西亚正式版",
				"en": "Xiaomi HyperOS Indonesia Stable"
			},
			"branchCode": "pipa_id_global",
			"idtag": "IDSO",
			"branchtag": "F",
			"show": "1",
			"carrier": [""],
			"region": "id",
			"zone": "2",
			"ep": "0",
			"roms": {
				"OS1.0.3.0.UMZIDXM": {
					"os": "OS1.0.3.0.UMZIDXM",
					"android": "14.0",
					"release": "2024-04-07",
					"recovery": "miui_PIPAIDGlobal_OS1.0.3.0.UMZIDXM_9c58adfaf0_14.0.zip",
					"fastboot": "pipa_id_global_images_OS1.0.3.0.UMZIDXM_20240311.0000.00_14.0_id_54462e93db.tgz"
				},
				"OS1.0.2.0.UMZIDXM": {
					"os": "OS1.0.2.0.UMZIDXM",
					"android": "14.0",
					"release": "2024-02-02",
					"recovery": "miui_PIPAIDGlobal_OS1.0.2.0.UMZIDXM_40ef0812d6_14.0.zip",
					"fastboot": "pipa_id_global_images_OS1.0.2.0.UMZIDXM_20240112.0000.00_14.0_id_13df3bddf2.tgz"
				}
			}
		},
		{
			"name": {
				"zh": "小米澎湃 OS 土耳其正式版",
				"en": "Xiaomi HyperOS Turkey Stable"
			},
			"branchCode": "pipa_tr_global",
			"idtag": "TRSO",
			"branchtag": "F",
			"show": "1",
			"carrier": [""],
			"region": "tr",
			"zone": "2",
			"ep": "0",
			"roms": {
				"OS1.0.3.0.UMZTRXM": {
					"os": "OS1.0.3.0.UMZTRXM",
					"android": "14.0",
					"release": "2024-04-09",
					"recovery": "miui_PIPATRGlobal_OS1.0.3.0.UMZTRXM_26ce21795e_14.0.zip",
					"fastboot": "pipa_tr_global_images_OS1.0.3.0.UMZTRXM_20240314.0000.00_14.0_tr_26f74ceea4.tgz"
				},
				"OS1.0.2.0.UMZTRXM": {
					"os": "OS1.0.2.0.UMZTRXM",
					"android": "14.0",
					"release": "2024-01-24",
					"recovery": "miui_PIPATRGlobal_OS1.0.2.0.UMZTRXM_d5041ca518_14.0.zip",
					"fastboot": "pipa_tr_global_images_OS1.0.2.0.UMZTRXM_20240112.0000.00_14.0_tr_9dac04d11b.tgz"
				}
			}
		}
	]
}
