{
	"device": "ruby",
	"name": {
		"zh": "Redmi Note 12 Pro/Pro+/探索版",
		"en": "Redmi Note 12 Pro/Pro+/Discovery 5G"
	},
	"type": "phone",
	"miui": "yes",
	"branches": [
		{
			"name": {
				"zh": "小米澎湃 OS 正式版",
				"en": "Xiaomi HyperOS Stable"
			},
			"branchCode": "ruby",
			"idtag": "CnOO",
			"branchtag": "F",
			"show": "1",
			"carrier": ["", "chinamobile", "chinaunicom"],
			"region": "cn",
			"zone": "1",
			"ep": "0",
			"roms": {
				"OS1.0.4.0.UMOCNXM": {
					"os": "OS1.0.4.0.UMOCNXM",
					"android": "14.0",
					"release": "2024-03-11",
					"recovery": "miui_RUBY_OS1.0.4.0.UMOCNXM_14c0492905_14.0.zip",
					"fastboot": "ruby_images_OS1.0.4.0.UMOCNXM_20240229.0000.00_14.0_cn_555996edec.tgz"
				},
				"OS1.0.3.0.UMOCNXM": {
					"os": "OS1.0.3.0.UMOCNXM",
					"android": "14.0",
					"release": "2024-01-18",
					"recovery": "miui_RUBY_OS1.0.3.0.UMOCNXM_c06e478636_14.0.zip",
					"fastboot": "ruby_images_OS1.0.3.0.UMOCNXM_20240112.0000.00_14.0_cn_7c13483d86.tgz"
				},
				"OS1.0.2.0.UMOCNXM": {
					"os": "OS1.0.2.0.UMOCNXM",
					"android": "14.0",
					"release": "2024-01-03",
					"recovery": "miui_RUBY_OS1.0.2.0.UMOCNXM_1d9030d6e5_14.0.zip",
					"fastboot": ""
				}
			}
		},
		{
			"name": {
				"zh": "小米澎湃 OS 中国电信定制版",
				"en": "Xiaomi HyperOS China Telecom Carrier Edition"
			},
			"branchCode": "ruby",
			"idtag": "CnOT",
			"branchtag": "F",
			"show": "1",
			"region": "cn",
			"carrier": ["chinatelecom"],
			"zone": "1",
			"ep": "0",
			"roms": {
				"OS1.0.4.0.UMOCNXM": {
					"os": "OS1.0.4.0.UMOCNXM",
					"android": "14.0",
					"release": "2024-03-11",
					"recovery": "miui_RUBY_OS1.0.4.0.UMOCNXM_14c0492905_14.0.zip",
					"fastboot": "ruby_images_OS1.0.4.0.UMOCNXM_20240229.0000.00_14.0_cn_chinatelecom_d86ee7e3f0.tgz"
				},
				"OS1.0.3.0.UMOCNXM": {
					"os": "OS1.0.3.0.UMOCNXM",
					"android": "14.0",
					"release": "2024-01-18",
					"recovery": "miui_RUBY_OS1.0.3.0.UMOCNXM_c06e478636_14.0.zip",
					"fastboot": "ruby_images_OS1.0.3.0.UMOCNXM_20240112.0000.00_14.0_cn_chinatelecom_d1d73787a0.tgz"
				}
			}
		},
		{
			"name": {
				"zh": "小米澎湃 OS 中国大陆政企标准版",
				"en": "Xiaomi HyperOS Enterprise Standard"
			},
			"branchCode": "ruby_ep_stdee",
			"idtag": "EPSTD",
			"branchtag": "F",
			"show": "1",
			"carrier": ["", "chinatelecom", "chinamobile", "chinaunicom"],
			"region": "cn",
			"zone": "1",
			"ep": "1",
			"roms": {
				"OS1.0.24.2.26.EP.STDEE.M16": {
					"os": "OS1.0.24.2.26.EP.STDEE.M16",
					"android": "14.0",
					"release": "2024-03-11",
					"recovery": "miui_RUBYEPSTDEE_OS1.0.24.2.26.EP.STDEE.M16_9023739f91_14.0.zip",
					"fastboot": "ruby_ep_stdee_images_OS1.0.24.2.26.EP.STDEE.M16_20240226.0000.00_14.0_cn_73c716a736.tgz",
					"ctelecom": "ruby_ep_stdee_images_OS1.0.24.2.26.EP.STDEE.M16_20240226.0000.00_14.0_cn_chinatelecom_229fe78c88.tgz"
				}
			}
		},
		{
			"name": {
				"zh": "小米澎湃 OS 中国台湾地区正式版",
				"en": "Xiaomi HyperOS China Taiwan Stable"
			},
			"branchCode": "ruby_tw_global",
			"idtag": "CNTP",
			"branchtag": "F",
			"show": "1",
			"carrier": [""],
			"region": "tw",
			"zone": "2",
			"ep": "0",
			"roms": {
				"OS1.0.1.0.UMOTWXM": {
					"os": "OS1.0.1.0.UMOTWXM",
					"android": "14.0",
					"release": "2024-03-04",
					"recovery": "miui_RUBYTWGlobal_OS1.0.1.0.UMOTWXM_48ee7b8e72_14.0.zip",
					"fastboot": "ruby_tw_global_images_OS1.0.1.0.UMOTWXM_20240222.0000.00_14.0_tw_81075d47c1.tgz"
				}
			}
		},
		{
			"name": {
				"zh": "小米澎湃 OS 国际正式版",
				"en": "Xiaomi HyperOS Global Stable"
			},
			"branchCode": "ruby_global",
			"idtag": "GBOO",
			"branchtag": "F",
			"show": "1",
			"carrier": [""],
			"region": "global",
			"zone": "2",
			"ep": "0",
			"roms": {
				"OS1.0.3.0.UMOMIXM": {
					"os": "OS1.0.3.0.UMOMIXM",
					"android": "14.0",
					"release": "2024-04-11",
					"recovery": "miui_RUBYGlobal_OS1.0.3.0.UMOMIXM_96040ddafb_14.0.zip",
					"fastboot": "ruby_global_images_OS1.0.3.0.UMOMIXM_20240331.0000.00_14.0_global_1f2bcf4ebb.tgz"
				},
				"OS1.0.2.0.UMOMIXM": {
					"os": "OS1.0.2.0.UMOMIXM",
					"android": "14.0",
					"release": "2024-03-15",
					"recovery": "miui_RUBYGlobal_OS1.0.2.0.UMOMIXM_188f934348_14.0.zip",
					"fastboot": "ruby_global_images_OS1.0.2.0.UMOMIXM_20240223.0000.00_14.0_global_ab78efbd11.tgz"
				},
				"OS1.0.1.0.UMOMIXM": {
					"os": "OS1.0.1.0.UMOMIXM",
					"android": "14.0",
					"release": "2024-01-29",
					"recovery": "miui_RUBYGlobal_OS1.0.1.0.UMOMIXM_4b21fa412f_14.0.zip",
					"fastboot": "ruby_global_images_OS1.0.1.0.UMOMIXM_20240117.0000.00_14.0_global_b9f0cdd1fe.tgz"
				}
			}
		},
		{
			"name": {
				"zh": "小米澎湃 OS 欧洲EEA正式版",
				"en": "Xiaomi HyperOS Europe EEA Stable"
			},
			"branchCode": "ruby_eea_global",
			"idtag": "EEAO",
			"branchtag": "F",
			"show": "1",
			"carrier": [""],
			"region": "eea",
			"zone": "2",
			"ep": "0",
			"roms": {
				"OS1.0.3.0.UMOEUXM": {
					"os": "OS1.0.3.0.UMOEUXM",
					"android": "14.0",
					"release": "2024-04-16",
					"recovery": "miui_RUBYEEAGlobal_OS1.0.3.0.UMOEUXM_bd54bd38dc_14.0.zip",
					"fastboot": "ruby_eea_global_images_OS1.0.3.0.UMOEUXM_20240331.0000.00_14.0_eea_4961a44fa1.tgz"
				},
				"OS1.0.2.0.UMOEUXM": {
					"os": "OS1.0.2.0.UMOEUXM",
					"android": "14.0",
					"release": "2024-03-26",
					"recovery": "miui_RUBYEEAGlobal_OS1.0.2.0.UMOEUXM_001eaf5922_14.0.zip",
					"fastboot": "ruby_eea_global_images_OS1.0.2.0.UMOEUXM_20240205.0000.00_14.0_eea_e54b599cc7.tgz"
				},
				"OS1.0.1.0.UMOEUXM": {
					"os": "OS1.0.1.0.UMOEUXM",
					"android": "14.0",
					"release": "2024-01-25",
					"recovery": "miui_RUBYEEAGlobal_OS1.0.1.0.UMOEUXM_d22f47926d_14.0.zip",
					"fastboot": "ruby_eea_global_images_OS1.0.1.0.UMOEUXM_20240117.0000.00_14.0_eea_ba6a264004.tgz"
				}
			}
		},
		{
			"name": {
				"zh": "小米澎湃 OS 俄罗斯正式版",
				"en": "Xiaomi HyperOS Russia Stable"
			},
			"branchCode": "ruby_ru_global",
			"idtag": "RUSO",
			"branchtag": "F",
			"show": "1",
			"carrier": [""],
			"region": "ru",
			"zone": "2",
			"ep": "0",
			"roms": {
				"OS1.0.2.0.UMORUXM": {
					"os": "OS1.0.2.0.UMORUXM",
					"android": "14.0",
					"release": "2024-03-24",
					"recovery": "miui_RUBYRUGlobal_OS1.0.2.0.UMORUXM_3b6a2217d5_14.0.zip",
					"fastboot": "ruby_ru_global_images_OS1.0.2.0.UMORUXM_20240315.0000.00_14.0_ru_80f271b2b4.tgz"
				}
			}
		},
		{
			"name": {
				"zh": "小米澎湃 OS 印度正式版",
				"en": "Xiaomi HyperOS India Stable"
			},
			"branchCode": "ruby_in_global",
			"idtag": "INSO",
			"branchtag": "F",
			"show": "1",
			"carrier": [""],
			"region": "in",
			"zone": "2",
			"ep": "0",
			"roms": {
				"OS1.0.2.0.UMOINXM": {
					"os": "OS1.0.2.0.UMOINXM",
					"android": "14.0",
					"release": "2024-04-19",
					"recovery": "miui_RUBYINGlobal_OS1.0.2.0.UMOINXM_d5bbac71f6_14.0.zip",
					"fastboot": "ruby_in_global_images_OS1.0.2.0.UMOINXM_20240408.0000.00_14.0_in_8fd978a048.tgz"
				},
				"OS1.0.1.0.UMOINXM": {
					"os": "OS1.0.1.0.UMOINXM",
					"android": "14.0",
					"release": "2024-03-11",
					"recovery": "miui_RUBYINGlobal_OS1.0.1.0.UMOINXM_3efecd9f47_14.0.zip",
					"fastboot": "ruby_in_global_images_OS1.0.1.0.UMOINXM_20240129.0000.00_14.0_in_3ab601a5ec.tgz"
				}
			}
		},
		{
			"name": {
				"zh": "小米澎湃 OS 土耳其正式版",
				"en": "Xiaomi HyperOS Turkey Stable"
			},
			"branchCode": "ruby_tr_global",
			"idtag": "TRSO",
			"branchtag": "F",
			"show": "1",
			"carrier": [""],
			"region": "tr",
			"zone": "2",
			"ep": "0",
			"roms": {
				"OS1.0.1.0.UMOTRXM": {
					"os": "OS1.0.1.0.UMOTRXM",
					"android": "14.0",
					"release": "2024-03-21",
					"recovery": "miui_RUBYTRGlobal_OS1.0.1.0.UMOTRXM_3944296943_14.0.zip",
					"fastboot": "ruby_tr_global_images_OS1.0.1.0.UMOTRXM_20240311.0000.00_14.0_tr_31e4d9063a.tgz"
				}
			}
		},
		{
			"name": {
				"zh": "小米澎湃 OS 印度尼西亚正式版",
				"en": "Xiaomi HyperOS Indonesia Stable"
			},
			"branchCode": "ruby_id_global",
			"idtag": "IDSO",
			"branchtag": "F",
			"show": "1",
			"carrier": [""],
			"region": "id",
			"zone": "2",
			"ep": "0",
			"roms": {
				"OS1.0.3.0.UMOIDXM": {
					"os": "OS1.0.3.0.UMOIDXM",
					"android": "14.0",
					"release": "2024-04-21",
					"recovery": "miui_RUBYIDGlobal_OS1.0.3.0.UMOIDXM_0c11959182_14.0.zip",
					"fastboot": "ruby_id_global_images_OS1.0.3.0.UMOIDXM_20240408.0000.00_14.0_id_fd04900994.tgz"
				},
				"OS1.0.2.0.UMOIDXM": {
					"os": "OS1.0.2.0.UMOIDXM",
					"android": "14.0",
					"release": "2024-03-01",
					"recovery": "miui_RUBYIDGlobal_OS1.0.2.0.UMOIDXM_aa62998cb8_14.0.zip",
					"fastboot": "ruby_id_global_images_OS1.0.2.0.UMOIDXM_20240207.0000.00_14.0_id_5a041851c2.tgz"
				}
			}
		},
		{
			"name": {
				"zh": "小米澎湃 OS 韩国正式版",
				"en": "Xiaomi HyperOS North Korea Stable"
			},
			"branchCode": "ruby_kr_global",
			"idtag": "NKSO",
			"branchtag": "F",
			"show": "1",
			"carrier": [""],
			"region": "global",
			"zone": "2",
			"ep": "0",
			"roms": {
				"OS1.0.1.0.UMOKRXM": {
					"os": "OS1.0.1.0.UMOKRXM",
					"android": "14.0",
					"release": "2024-03-02",
					"recovery": "miui_RUBYKRGlobal_OS1.0.1.0.UMOKRXM_17fa26a30e_14.0.zip",
					"fastboot": "ruby_kr_global_images_OS1.0.1.0.UMOKRXM_20240222.0000.00_14.0_kr_8ac1ad2c0a.tgz"
				}
			}
		}
	]
}
