{
	"device": "sea",
	"name": {
		"zh": "Redmi Note 12S 国际",
		"en": "Redmi Note 12S"
	},
	"type": "phone",
	"miui": "yes",
	"branches": [
		{
			"name": {
				"zh": "小米澎湃 OS 中国台湾地区正式版",
				"en": "Xiaomi HyperOS China Taiwan Stable"
			},
			"branchCode": "sea_tw_global",
			"idtag": "CNTP",
			"branchtag": "F",
			"show": "1",
			"carrier": [""],
			"region": "tw",
			"zone": "2",
			"ep": "0",
			"roms": {
				"OS1.0.2.0.UHZTWXM": {
					"os": "OS1.0.2.0.UHZTWXM",
					"android": "14.0",
					"release": "2024-04-07",
					"recovery": "miui_SEATWGlobal_OS1.0.2.0.UHZTWXM_98bf997ded_14.0.zip",
					"fastboot": "sea_tw_global_images_OS1.0.2.0.UHZTWXM_20240312.0000.00_14.0_tw_6b92dac49f.tgz"
				},
				"OS1.0.1.0.UHZTWXM": {
					"os": "OS1.0.1.0.UHZTWXM",
					"android": "14.0",
					"release": "2024-01-19",
					"recovery": "miui_SEATWGlobal_OS1.0.1.0.UHZTWXM_91cdafca87_14.0.zip",
					"fastboot": "sea_tw_global_images_OS1.0.1.0.UHZTWXM_20240108.0000.00_14.0_tw_56a8ea5f35.tgz"
				}
			}
		},
		{
			"name": {
				"zh": "小米澎湃 OS 国际正式版",
				"en": "Xiaomi HyperOS Global Stable"
			},
			"branchCode": "sea_global",
			"idtag": "GBOO",
			"branchtag": "F",
			"show": "1",
			"carrier": [""],
			"region": "global",
			"zone": "2",
			"ep": "0",
			"roms": {
				"OS1.0.6.0.UHZMIXM": {
					"os": "OS1.0.6.0.UHZMIXM",
					"android": "14.0",
					"release": "2024-05-06",
					"recovery": "miui_SEAGlobal_OS1.0.6.0.UHZMIXM_a3d9cf5609_14.0.zip",
					"fastboot": ""
				},
				"OS1.0.5.0.UHZMIXM": {
					"os": "OS1.0.5.0.UHZMIXM",
					"android": "14.0",
					"release": "2024-02-22",
					"recovery": "miui_SEAGlobal_OS1.0.5.0.UHZMIXM_69800e0aaf_14.0.zip",
					"fastboot": "sea_global_images_OS1.0.5.0.UHZMIXM_20240122.0000.00_14.0_global_3860567eac.tgz"
				},
				"OS1.0.3.0.UHZMIXM": {
					"os": "OS1.0.3.0.UHZMIXM",
					"android": "14.0",
					"release": "2023-12-19",
					"recovery": "miui_SEAGlobal_OS1.0.3.0.UHZMIXM_d4c318c44e_14.0.zip",
					"fastboot": "sea_global_images_OS1.0.3.0.UHZMIXM_20231214.0000.00_14.0_global_a0e96201a5.tgz"
				}
			}
		},
		{
			"name": {
				"zh": "小米澎湃 OS 欧洲EEA正式版",
				"en": "Xiaomi HyperOS Europe EEA Stable"
			},
			"branchCode": "sea_eea_global",
			"idtag": "EEAO",
			"branchtag": "F",
			"show": "1",
			"carrier": [""],
			"region": "eea",
			"zone": "2",
			"ep": "0",
			"roms": {
				"OS1.0.3.0.UHZEUXM": {
					"os": "OS1.0.3.0.UHZEUXM",
					"android": "14.0",
					"release": "2024-03-18",
					"recovery": "miui_SEAEEAGlobal_OS1.0.3.0.UHZEUXM_b347782c54_14.0.zip",
					"fastboot": "sea_eea_global_images_OS1.0.3.0.UHZEUXM_20240226.0000.00_14.0_eea_faa4c90f1a.tgz"
				},
				"OS1.0.1.0.UHZEUXM": {
					"os": "OS1.0.1.0.UHZEUXM",
					"android": "14.0",
					"release": "2024-01-08",
					"recovery": "miui_SEAEEAGlobal_OS1.0.1.0.UHZEUXM_3779c18df9_14.0.zip",
					"fastboot": "sea_eea_global_images_OS1.0.1.0.UHZEUXM_20231225.0000.00_14.0_eea_39900e5d50.tgz"
				}
			}
		},
		{
			"name": {
				"zh": "小米澎湃 OS 俄罗斯正式版",
				"en": "Xiaomi HyperOS Russia Stable"
			},
			"branchCode": "sea_ru_global",
			"idtag": "RUSO",
			"branchtag": "F",
			"show": "1",
			"carrier": [""],
			"region": "ru",
			"zone": "2",
			"ep": "0",
			"roms": {
				"OS1.0.2.0.UHZRUXM": {
					"os": "OS1.0.2.0.UHZRUXM",
					"android": "14.0",
					"release": "2024-04-01",
					"recovery": "miui_SEARUGlobal_OS1.0.2.0.UHZRUXM_befbc420fc_14.0.zip",
					"fastboot": "sea_ru_global_images_OS1.0.2.0.UHZRUXM_20240306.0000.00_14.0_ru_0e11136663.tgz"
				},
				"OS1.0.1.0.UHZRUXM": {
					"os": "OS1.0.1.0.UHZRUXM",
					"android": "14.0",
					"release": "2024-01-22",
					"recovery": "miui_SEARUGlobal_OS1.0.1.0.UHZRUXM_55da52bc57_14.0.zip",
					"fastboot": "sea_ru_global_images_OS1.0.1.0.UHZRUXM_20240112.0000.00_14.0_ru_bffdf3e424.tgz"
				}
			}
		},
		{
			"name": {
				"zh": "小米澎湃 OS 土耳其正式版",
				"en": "Xiaomi HyperOS Turkey Stable"
			},
			"branchCode": "sea_tr_global",
			"idtag": "TRSO",
			"branchtag": "F",
			"show": "1",
			"carrier": [""],
			"region": "tr",
			"zone": "2",
			"ep": "0",
			"roms": {
				"OS1.0.1.0.UHZTRXM": {
					"os": "OS1.0.1.0.UHZTRXM",
					"android": "14.0",
					"release": "2024-01-23",
					"recovery": "miui_SEATRGlobal_OS1.0.1.0.UHZTRXM_d3b4123876_14.0.zip",
					"fastboot": "sea_tr_global_images_OS1.0.1.0.UHZTRXM_20240116.0000.00_14.0_tr_d228423f56.tgz"
				}
			}
		}
	]
}
