{
	"device": "sheng",
	"name": {
		"zh": "小米平板 6S Pro 12.4",
		"en": "Xiaomi Pad 6S Pro 12.4"
	},
	"type": "tablet",
	"miui": "no",
	"branches": [
		{
			"name": {
				"zh": "小米澎湃 OS 正式版",
				"en": "Xiaomi HyperOS Stable"
			},
			"branchCode": "sheng",
			"idtag": "CnOO",
			"branchtag": "F",
			"show": "1",
			"carrier": ["", "chinatelecom", "chinamobile", "chinaunicom"],
			"region": "cn",
			"zone": "1",
			"ep": "0",
			"roms": {
				"OS1.0.7.0.UNXCNXM": {
					"os": "OS1.0.7.0.UNXCNXM",
					"android": "14.0",
					"release": "2024-03-20",
					"recovery": "miui_SHENG_OS1.0.7.0.UNXCNXM_44a9846911_14.0.zip",
					"fastboot": "sheng_images_OS1.0.7.0.UNXCNXM_20240315.0000.00_14.0_cn_2315bcd97e.tgz"
				},
				"OS1.0.5.0.UNXCNXM": {
					"os": "OS1.0.5.0.UNXCNXM",
					"android": "14.0",
					"release": "2024-03-09",
					"recovery": "miui_SHENG_OS1.0.5.0.UNXCNXM_c360e030b8_14.0.zip",
					"fastboot": "sheng_images_OS1.0.5.0.UNXCNXM_20240306.0000.00_14.0_cn_7cac03de7b.tgz"
				},
				"OS1.0.4.0.UNXCNXM": {
					"os": "OS1.0.4.0.UNXCNXM",
					"android": "14.0",
					"release": "2024-02-22",
					"recovery": "miui_SHENG_OS1.0.4.0.UNXCNXM_1db2797911_14.0.zip",
					"fastboot": "sheng_images_OS1.0.4.0.UNXCNXM_20240205.0000.00_14.0_cn_f87e0d6ecd.tgz"
				},
				"OS1.0.3.0.UNXCNXM": {
					"os": "OS1.0.3.0.UNXCNXM",
					"android": "14.0",
					"release": "2024-02-22",
					"recovery": "miui_SHENG_OS1.0.3.0.UNXCNXM_37ab7cee9d_14.0.zip",
					"fastboot": "sheng_images_OS1.0.3.0.UNXCNXM_20240128.0000.00_14.0_cn_5d0cf1909d.tgz"
				},
				"OS1.0.1.0.UNXCNXM": {
					"os": "OS1.0.1.0.UNXCNXM",
					"android": "14.0",
					"release": "2024-02-22",
					"recovery": "miui_SHENG_OS1.0.1.0.UNXCNXM_db6e0aaf09_14.0.zip",
					"fastboot": ""
				}
			}
		},
		{
			"name": {
				"zh": "小米澎湃 OS 中国大陆政企标准版",
				"en": "Xiaomi HyperOS Enterprise Standard"
			},
			"branchCode": "sheng_ep_stdee",
			"idtag": "EPSTD",
			"branchtag": "F",
			"show": "1",
			"carrier": ["", "chinatelecom", "chinamobile", "chinaunicom"],
			"region": "cn",
			"zone": "1",
			"ep": "1",
			"roms": {
				"OS1.0.24.4.16.EP.STDEE.N81A": {
					"os": "OS1.0.24.4.16.EP.STDEE.N81A",
					"android": "14.0",
					"release": "2024-05-06",
					"recovery": "miui_SHENGEPSTDEE_OS1.0.24.4.16.EP.STDEE.N81A_b8e830f0b6_14.0.zip",
					"fastboot": "sheng_ep_stdee_images_OS1.0.24.4.16.EP.STDEE.N81A_20240416.0000.00_14.0_cn_698be647f8.tgz",
					"ctelecom": ""
				}
			}
		},
		{
			"name": {
				"zh": "小米澎湃 OS 演示机系统",
				"en": "Xiaomi HyperOS China MiStore Demo"
			},
			"branchCode": "sheng_demo",
			"idtag": "CnOD",
			"branchtag": "F",
			"show": "0",
			"region": "cn",
			"carrier": ["", "chinatelecom", "chinamobile", "chinaunicom"],
			"zone": "1",
			"ep": "0",
			"roms": {
				"OS1.0.9.0.UNXCNDM": {
					"os": "OS1.0.9.0.UNXCNDM",
					"android": "14.0",
					"release": "2024-04-10",
					"recovery": "",
					"fastboot": "sheng_demo_images_OS1.0.9.0.UNXCNDM_20240408.0000.00_14.0_cn_d486ca8bb5.tgz",
					"ctelecom": ""
				},
				"OS1.0.6.0.UNXCNDM": {
					"os": "OS1.0.6.0.UNXCNDM",
					"android": "14.0",
					"release": "2024-02-26",
					"recovery": "miui_SHENGDEMO_OS1.0.6.0.UNXCNDM_5d41d721a9_14.0.zip",
					"fastboot": "sheng_demo_images_OS1.0.6.0.UNXCNDM_20240226.0000.00_14.0_cn_07da264683.tgz",
					"ctelecom": ""
				}
			}
		},
		{
			"name": {
				"zh": "小米澎湃 OS 国际正式版",
				"en": "Xiaomi HyperOS Global Stable"
			},
			"branchCode": "sheng_global",
			"idtag": "GBOO",
			"branchtag": "F",
			"show": "1",
			"carrier": [""],
			"region": "global",
			"zone": "2",
			"ep": "0",
			"roms": {
				"OS1.0.1.0.UNXMIXM": {
					"os": "OS1.0.1.0.UNXMIXM",
					"android": "14.0",
					"release": "2024-04-24",
					"recovery": "miui_SHENGGlobal_OS1.0.1.0.UNXMIXM_8a380171ea_14.0.zip",
					"fastboot": "sheng_global_images_OS1.0.1.0.UNXMIXM_20240321.0000.00_14.0_global_596315a138.tgz"
				}
			}
		},
		{
			"name": {
				"zh": "小米澎湃 OS 欧洲EEA正式版",
				"en": "Xiaomi HyperOS Europe EEA Stable"
			},
			"branchCode": "sheng_eea_global",
			"idtag": "EEAO",
			"branchtag": "F",
			"show": "1",
			"carrier": [""],
			"region": "eea",
			"zone": "2",
			"ep": "0",
			"roms": {
				"OS1.0.1.0.UNXEUXM": {
					"os": "OS1.0.1.0.UNXEUXM",
					"android": "14.0",
					"release": "2024-04-03",
					"recovery": "miui_SHENGEEAGlobal_OS1.0.1.0.UNXEUXM_d68576433f_14.0.zip",
					"fastboot": "sheng_eea_global_images_OS1.0.1.0.UNXEUXM_20240306.0000.00_14.0_eea_0051d6d79c.tgz"
				}
			}
		},
		{
			"name": {
				"zh": "小米澎湃 OS 俄罗斯正式版",
				"en": "Xiaomi HyperOS Russia Stable"
			},
			"branchCode": "sheng_ru_global",
			"idtag": "RUSO",
			"branchtag": "F",
			"show": "1",
			"carrier": [""],
			"region": "ru",
			"zone": "2",
			"ep": "0",
			"roms": {
				"OS1.0.1.0.UNXRUXM": {
					"os": "OS1.0.1.0.UNXRUXM",
					"android": "14.0",
					"release": "2024-04-24",
					"recovery": "miui_SHENGRUGlobal_OS1.0.1.0.UNXRUXM_db9bb0af1d_14.0.zip",
					"fastboot": "sheng_ru_global_images_OS1.0.1.0.UNXRUXM_20240313.0000.00_14.0_ru_8b908a68a1.tgz"
				}
			}
		},
		{
			"name": {
				"zh": "小米澎湃 OS 印度尼西亚正式版",
				"en": "Xiaomi HyperOS Indonesia Stable"
			},
			"branchCode": "sheng_id_global",
			"idtag": "IDSO",
			"branchtag": "F",
			"show": "1",
			"carrier": [""],
			"region": "id",
			"zone": "2",
			"ep": "0",
			"roms": {
				"OS1.0.1.0.UNXIDXM": {
					"os": "OS1.0.1.0.UNXIDXM",
					"android": "14.0",
					"release": "2024-05-05",
					"recovery": "miui_SHENGIDGlobal_OS1.0.1.0.UNXIDXM_1c72a036c6_14.0.zip",
					"fastboot": "sheng_id_global_images_OS1.0.1.0.UNXIDXM_20240321.0000.00_14.0_id_cbdbb64c78.tgz"
				}
			}
		}
	]
}
