{
	"device": "venus",
	"name": {
		"zh": "小米 11",
		"en": "Mi 11"
	},
	"type": "phone",
	"miui": "yes",
	"branches": [
		{
			"name": {
				"zh": "小米澎湃 OS 正式版",
				"en": "Xiaomi HyperOS Stable"
			},
			"branchCode": "venus",
			"idtag": "CnOO",
			"branchtag": "F",
			"show": "1",
			"carrier": ["", "chinaunicom"],
			"region": "cn",
			"zone": "1",
			"ep": "0",
			"roms": {
				"OS1.0.1.0.UKBCNXM": {
					"os": "OS1.0.1.0.UKBCNXM",
					"android": "14.0",
					"release": "2024-04-15",
					"recovery": "miui_VENUS_OS1.0.1.0.UKBCNXM_f461404e5a_14.0.zip",
					"fastboot": "venus_images_OS1.0.1.0.UKBCNXM_20240326.0000.00_14.0_cn_d9092415f3.tgz"
				}
			}
		},
		{
			"name": {
				"zh": "小米澎湃 OS 中国电信定制版",
				"en": "Xiaomi HyperOS China Telecom Carrier Edition"
			},
			"branchCode": "venus",
			"idtag": "CnOT",
			"branchtag": "F",
			"show": "1",
			"region": "cn",
			"carrier": ["chinatelecom"],
			"zone": "1",
			"ep": "0",
			"roms": {
				"OS1.0.1.0.UKBCNXM": {
					"os": "OS1.0.1.0.UKBCNXM",
					"android": "14.0",
					"release": "2024-04-15",
					"recovery": "miui_VENUS_OS1.0.1.0.UKBCNXM_f461404e5a_14.0.zip",
					"fastboot": "venus_images_OS1.0.1.0.UKBCNXM_20240326.0000.00_14.0_cn_chinatelecom_6390fa717a.tgz"
				}
			}
		},
		{
			"name": {
				"zh": "小米澎湃 OS 中国移动定制版",
				"en": "Xiaomi HyperOS China Mobile Carrier Edition"
			},
			"branchCode": "venus",
			"idtag": "CnOM",
			"branchtag": "F",
			"show": "1",
			"region": "cn",
			"carrier": ["chinamobile"],
			"zone": "1",
			"ep": "0",
			"roms": {
				"OS1.0.1.0.UKBCNXM": {
					"os": "OS1.0.1.0.UKBCNXM",
					"android": "14.0",
					"release": "2024-04-15",
					"recovery": "miui_VENUS_OS1.0.1.0.UKBCNXM_f461404e5a_14.0.zip",
					"fastboot": "venus_images_OS1.0.1.0.UKBCNXM_20240326.0000.00_14.0_cn_chinamobile_2ca84f1024.tgz"
				}
			}
		},
		{
			"name": {
				"zh": "小米澎湃 OS 国际正式版",
				"en": "Xiaomi HyperOS Global Stable"
			},
			"branchCode": "venus_global",
			"idtag": "GBOO",
			"branchtag": "F",
			"show": "1",
			"carrier": [""],
			"region": "global",
			"zone": "2",
			"ep": "0",
			"roms": {
				"OS1.0.2.0.UKBMIXM": {
					"os": "OS1.0.2.0.UKBMIXM",
					"android": "14.0",
					"release": "2024-04-29",
					"recovery": "miui_VENUSGlobal_OS1.0.2.0.UKBMIXM_9841c44a8c_14.0.zip",
					"fastboot": "venus_global_images_OS1.0.2.0.UKBMIXM_20240417.0000.00_14.0_global_8b243a1c76.tgz"
				}
			}
		},
		{
			"name": {
				"zh": "小米澎湃 OS 欧洲EEA正式版",
				"en": "Xiaomi HyperOS Europe EEA Stable"
			},
			"branchCode": "venus_eea_global",
			"idtag": "EEAO",
			"branchtag": "F",
			"show": "1",
			"carrier": [""],
			"region": "eea",
			"zone": "2",
			"ep": "0",
			"roms": {
				"OS1.0.2.0.UKBEUXM": {
					"os": "OS1.0.2.0.UKBEUXM",
					"android": "14.0",
					"release": "2024-04-22",
					"recovery": "miui_VENUSEEAGlobal_OS1.0.2.0.UKBEUXM_958bbcbdfc_14.0.zip",
					"fastboot": "venus_eea_global_images_OS1.0.2.0.UKBEUXM_20240408.0000.00_14.0_eea_66f7f29cfb.tgz"
				}
			}
		}
	]
}