{
	"device": "zizhan",
	"name": {
		"zh": "小米 MIX FOLD 2",
		"en": "Xiaomi MIX Fold 2"
	},
	"type": "foldable",
	"miui": "yes",
	"branches": [
		{
			"name": {
				"zh": "小米澎湃 OS 开发版",
				"en": "Xiaomi HyperOS DEV"
			},
			"branchCode": "zizhan",
			"idtag": "Dev",
			"branchtag": "X",
			"show": "1",
			"carrier": ["", "chinatelecom", "chinamobile", "chinaunicom"],
			"region": "cn",
			"zone": "1",
			"ep": "0",
			"roms": {
				"OS1.0.24.4.22.DEV": {
					"os": "OS1.0.24.4.22.DEV",
					"android": "14.0",
					"release": "2024-04-26",
					"recovery": "miui_ZIZHAN_OS1.0.24.4.22.DEV_2e5d05d63f_14.0.zip",
					"fastboot": ""
				},
				"OS1.0.24.4.15.DEV": {
					"os": "OS1.0.24.4.15.DEV",
					"android": "14.0",
					"release": "2024-04-19",
					"recovery": "miui_ZIZHAN_OS1.0.24.4.15.DEV_4cb361934d_14.0.zip",
					"fastboot": ""
				},
				"OS1.0.24.4.8.DEV": {
					"os": "OS1.0.24.4.8.DEV",
					"android": "14.0",
					"release": "2024-04-12",
					"recovery": "miui_ZIZHAN_OS1.0.24.4.8.DEV_6f600a0e3b_14.0.zip",
					"fastboot": ""
				},
				"OS1.0.24.3.25.DEV": {
					"os": "OS1.0.24.3.25.DEV",
					"android": "14.0",
					"release": "2024-03-29",
					"recovery": "miui_ZIZHAN_OS1.0.24.3.25.DEV_113953ff6a_14.0.zip",
					"fastboot": ""
				},
				"OS1.0.24.3.18.DEV": {
					"os": "OS1.0.24.3.18.DEV",
					"android": "14.0",
					"release": "2024-03-22",
					"recovery": "miui_ZIZHAN_OS1.0.24.3.18.DEV_6a616f48fc_14.0.zip",
					"fastboot": ""
				},
				"OS1.0.24.3.11.DEV": {
					"os": "OS1.0.24.3.11.DEV",
					"android": "14.0",
					"release": "2024-03-15",
					"recovery": "miui_ZIZHAN_OS1.0.24.3.11.DEV_77e19e79bf_14.0.zip",
					"fastboot": ""
				},
				"OS1.0.24.3.4.DEV": {
					"os": "OS1.0.24.3.4.DEV",
					"android": "14.0",
					"release": "2024-03-08",
					"recovery": "miui_ZIZHAN_OS1.0.24.3.4.DEV_858dc49825_14.0.zip",
					"fastboot": ""
				},
				"OS1.0.24.2.26.DEV": {
					"os": "OS1.0.24.2.26.DEV",
					"android": "14.0",
					"release": "2024-03-01",
					"recovery": "miui_ZIZHAN_OS1.0.24.2.26.DEV_c79c0d8c4c_14.0.zip",
					"fastboot": ""
				},
				"OS1.0.24.2.20.DEV": {
					"os": "OS1.0.24.2.20.DEV",
					"android": "14.0",
					"release": "2024-02-23",
					"recovery": "miui_ZIZHAN_OS1.0.24.2.20.DEV_957765349d_14.0.zip",
					"fastboot": ""
				},
				"OS1.0.24.1.29.DEV": {
					"os": "OS1.0.24.1.29.DEV",
					"android": "14.0",
					"release": "2024-02-02",
					"recovery": "miui_ZIZHAN_OS1.0.24.1.29.DEV_65b2a73f6b_14.0.zip",
					"fastboot": ""
				},
				"OS1.0.24.1.22.DEV": {
					"os": "OS1.0.24.1.22.DEV",
					"android": "14.0",
					"release": "2024-01-26",
					"recovery": "miui_ZIZHAN_OS1.0.24.1.22.DEV_fccab2380e_14.0.zip",
					"fastboot": ""
				},
				"OS1.0.24.1.15.DEV": {
					"os": "OS1.0.24.1.15.DEV",
					"android": "14.0",
					"release": "2024-01-19",
					"recovery": "miui_ZIZHAN_OS1.0.24.1.15.DEV_e92f1b158b_14.0.zip",
					"fastboot": ""
				},
				"OS1.0.24.1.8.DEV": {
					"os": "OS1.0.24.1.8.DEV",
					"android": "14.0",
					"release": "2024-01-12",
					"recovery": "miui_ZIZHAN_OS1.0.24.1.8.DEV_321fc2d1d2_14.0.zip",
					"fastboot": ""
				},
				"OS1.0.24.1.1.DEV": {
					"os": "OS1.0.24.1.1.DEV",
					"android": "14.0",
					"release": "2024-01-05",
					"recovery": "miui_ZIZHAN_OS1.0.24.1.1.DEV_4cfb1a4ed8_14.0.zip",
					"fastboot": ""
				},
				"OS1.0.23.12.28.DEV": {
					"os": "OS1.0.23.12.28.DEV",
					"android": "14.0",
					"release": "2023-12-29",
					"recovery": "miui_ZIZHAN_OS1.0.23.12.28.DEV_e13f8f2a53_14.0.zip",
					"fastboot": ""
				},
				"OS1.0.23.12.18.DEV": {
					"os": "OS1.0.23.12.18.DEV",
					"android": "14.0",
					"release": "2023-12-22",
					"recovery": "miui_ZIZHAN_OS1.0.23.12.18.DEV_98446f7440_14.0.zip",
					"fastboot": ""
				},
				"OS1.0.23.12.11.DEV": {
					"os": "OS1.0.23.12.11.DEV",
					"android": "14.0",
					"release": "2023-12-15",
					"recovery": "miui_ZIZHAN_OS1.0.23.12.11.DEV_11f6bbc1ea_14.0.zip",
					"fastboot": ""
				},
				"OS1.0.23.12.4.DEV": {
					"os": "OS1.0.23.12.4.DEV",
					"android": "14.0",
					"release": "2023-12-08",
					"recovery": "miui_ZIZHAN_OS1.0.23.12.4.DEV_f16ec82d2e_14.0.zip",
					"fastboot": ""
				},
				"OS1.0.23.11.27.DEV": {
					"os": "OS1.0.23.11.27.DEV",
					"android": "14.0",
					"release": "2023-12-01",
					"recovery": "miui_ZIZHAN_OS1.0.23.11.27.DEV_3d6c583719_14.0.zip",
					"fastboot": ""
				},
				"OS1.0.23.11.19.DEV": {
					"os": "OS1.0.23.11.19.DEV",
					"android": "14.0",
					"release": "2023-11-21",
					"recovery": "miui_ZIZHAN_OS1.0.23.11.19.DEV_438fe40030_14.0.zip",
					"fastboot": ""
				}
			}
		},
		{
			"name": {
				"zh": "小米澎湃 OS 正式版",
				"en": "Xiaomi HyperOS Stable"
			},
			"branchCode": "zizhan",
			"idtag": "CnOO",
			"branchtag": "F",
			"carrier": ["", "chinamobile", "chinaunicom"],
			"show": "1",
			"region": "cn",
			"zone": "1",
			"ep": "0",
			"roms": {
				"OS1.0.3.0.ULRCNXM": {
					"os": "OS1.0.3.0.ULRCNXM",
					"android": "14.0",
					"release": "2024-03-19",
					"recovery": "miui_ZIZHAN_OS1.0.3.0.ULRCNXM_8d7d994eb5_14.0.zip",
					"fastboot": "zizhan_images_OS1.0.3.0.ULRCNXM_20240229.0000.00_14.0_cn_bfeb5875b3.tgz"
				},
				"OS1.0.2.0.ULRCNXM": {
					"os": "OS1.0.2.0.ULRCNXM",
					"android": "14.0",
					"release": "2023-12-22",
					"recovery": "miui_ZIZHAN_OS1.0.2.0.ULRCNXM_145e69abdf_14.0.zip",
					"fastboot": "zizhan_images_OS1.0.2.0.ULRCNXM_20231215.0000.00_14.0_cn_528c8cbe90.tgz"
				}
			}
		},
		{
			"name": {
				"zh": "小米澎湃 OS 中国电信定制版",
				"en": "Xiaomi HyperOS China Telecom Carrier Edition"
			},
			"branchCode": "zizhan",
			"idtag": "CnOT",
			"branchtag": "F",
			"show": "1",
			"region": "cn",
			"carrier": ["chinatelecom"],
			"zone": "1",
			"ep": "0",
			"roms": {
				"OS1.0.3.0.ULRCNXM": {
					"os": "OS1.0.3.0.ULRCNXM",
					"android": "14.0",
					"release": "2024-03-19",
					"recovery": "miui_ZIZHAN_OS1.0.3.0.ULRCNXM_8d7d994eb5_14.0.zip",
					"fastboot": "zizhan_images_OS1.0.3.0.ULRCNXM_20240229.0000.00_14.0_cn_chinatelecom_ee01123b14.tgz"
				},
				"OS1.0.2.0.ULRCNXM": {
					"os": "OS1.0.2.0.ULRCNXM",
					"android": "14.0",
					"release": "2023-12-22",
					"recovery": "miui_ZIZHAN_OS1.0.2.0.ULRCNXM_145e69abdf_14.0.zip",
					"fastboot": "zizhan_images_OS1.0.2.0.ULRCNXM_20231215.0000.00_14.0_cn_chinatelecom_2ec41c857b.tgz"
				}
			}
		}
	]
}
